{
    "__updated": "6.10.2017",
    "atmospheres": [
        {
            "features": [
                "интеллектуальная"
            ]
        }
    ],
    "heroes": [
        {
            "features": [
                "раскованный",
                "профессионал",
                "добрый",
                "обычный",
                "богатый",
                "высокомерный",
                "бедный",
                "счастливый",
                "двуликий",
                "сангвиник",
                "холерик",
                "оптимист",
                "умный",
                "грубый",
                "подросток",
                "мужчина",
                "экстраверт",
                "инициативный",
                "гениальный",
                "прилежный",
                "молодой",
                "харизматичный"
            ],
            "name": "Фрэнк Эбегнейл",
            "specials": [
                "школьник",
                "мошенник"
            ]
        },
        {
            "features": [
                "обычный",
                "грубый",
                "мужчина",
                "высокомерный",
                "прилежный",
                "скромный",
                "умный",
                "бедный",
                "бережливый",
                "молодой",
                "флегматик",
                "интроверт"
            ],
            "name": "Карл Хэнрэтти",
            "specials": [
                "полицейский",
                "детектив"
            ]
        }
    ],
    "imdb_id": 264464,
    "kinopoisk_id": 324,
    "name": "Поймай меня, если сможешь",
    "places": [
        {
            "features": [
                "мегаполис",
                "Земля",
                "США"
            ]
        }
    ],
    "problems": [
        {
            "features": [
                "лицемерие",
                "материализм",
                "наглость",
                "эгоизм",
                "семья",
                "махинации",
                "жадность",
                "ложь"
            ]
        }
    ],
    "stories": [
        {
            "features": [
                "расследование",
                "мошенничество",
                "поражение",
                "управление",
                "становление",
                "угнетение",
                "махинации",
                "деньги",
                "успех",
                "расцвет"
            ]
        }
    ],
    "times": [
        {
            "features": []
        }
    ]
}