{
    "__updated": "6.10.2017",
    "atmospheres": [
        {
            "features": [
                "пошлая",
                "линейная",
                "яркая",
                "напряженная",
                "грустная",
                "динамичная",
                "жестокая"
            ]
        }
    ],
    "heroes": [
        {
            "features": [
                "лидер",
                "двуликий",
                "богатый",
                "мужчина",
                "целеустремленный",
                "экстраверт",
                "агрессивный",
                "неряшливый",
                "высокомерный",
                "молодой",
                "холерик",
                "харизматичный",
                "оптимист",
                "умный",
                "раскованный",
                "профессионал"
            ],
            "name": "Кастер Трой",
            "specials": [
                "псих",
                "двуликий",
                "террорист",
                "убийца"
            ]
        },
        {
            "features": [
                "обычный",
                "грубый",
                "мужчина",
                "аристократ",
                "целеустремленный",
                "инициативный",
                "высокомерный",
                "сангвиник",
                "прилежный",
                "скромный",
                "умный",
                "бедный",
                "пессимист",
                "молодой",
                "интроверт",
                "раскованный",
                "профессионал"
            ],
            "name": "Шон Арчер",
            "specials": [
                "двуликий",
                "полицейский"
            ]
        }
    ],
    "imdb_id": 119094,
    "kinopoisk_id": 4606,
    "name": "Без лица",
    "places": [
        {
            "features": [
                "мегаполис",
                "тюрьма",
                "США"
            ]
        }
    ],
    "problems": [
        {
            "features": [
                "эгоизм",
                "заговор",
                "угнетение",
                "махинации",
                "халатность",
                "ложь"
            ]
        }
    ],
    "stories": [
        {
            "features": [
                "добро",
                "преступления",
                "терроризм",
                "убийства",
                "зло"
            ]
        }
    ],
    "times": [
        {
            "features": []
        }
    ]
}