{
    "__updated": "6.10.2017",
    "atmospheres": [
        {
            "features": [
                "линейная",
                "яркая",
                "напряженная",
                "веселая",
                "развязная",
                "динамичная"
            ]
        }
    ],
    "heroes": [],
    "imdb_id": 187078,
    "kinopoisk_id": 2011,
    "name": "Угнать за 60 секунд",
    "places": [
        {
            "features": [
                "США"
            ]
        }
    ],
    "problems": [
        {
            "features": [
                "мафия",
                "глупость",
                "угнетение",
                "бессилие",
                "выбор"
            ]
        }
    ],
    "stories": [
        {
            "features": [
                "ограбление",
                "расследование",
                "машины",
                "гонки",
                "дружба",
                "преступления"
            ]
        }
    ],
    "times": [
        {
            "features": []
        }
    ]
}