{
    "__updated": "6.10.2017",
    "atmospheres": [
        {
            "features": [
                "напряженная",
                "веселая",
                "развязная",
                "динамичная",
                "жестокая"
            ]
        }
    ],
    "heroes": [
        {
            "features": [
                "добрый",
                "обычный",
                "грубый",
                "подросток",
                "аристократ",
                "мужчина",
                "инициативный",
                "неряшливый",
                "гениальный",
                "прилежный",
                "скромный",
                "холерик",
                "молодой",
                "умный",
                "раскованный"
            ],
            "name": "Эггси",
            "specials": [
                "гуляка",
                "боец"
            ]
        },
        {
            "features": [
                "обычный",
                "грубый",
                "подросток",
                "мужчина",
                "инициативный",
                "неряшливый",
                "гениальный",
                "скромный",
                "бедный",
                "холерик",
                "харизматичный",
                "молодой",
                "умный",
                "раскованный",
                "профессионал"
            ],
            "name": "Гарри",
            "specials": [
                "убийца",
                "боец"
            ]
        }
    ],
    "imdb_id": 2802144,
    "kinopoisk_id": 749540,
    "name": "Kingsman: Секретная служба",
    "places": [
        {
            "features": [
                "мегаполис",
                "Земля",
                "Англия",
                "США"
            ]
        }
    ],
    "problems": [
        {
            "features": [
                "власть",
                "зло",
                "семья",
                "продажность",
                "заговор",
                "равнодушие",
                "махинации",
                "жадность"
            ]
        }
    ],
    "stories": [
        {
            "features": [
                "молодежь",
                "добро",
                "зло",
                "драки",
                "порабощение",
                "становление",
                "резня",
                "расцвет",
                "убийства"
            ]
        }
    ],
    "times": [
        {
            "features": [
                "лето"
            ]
        }
    ]
}