{
    "__updated": "6.10.2017",
    "atmospheres": [
        {
            "features": [
                "впечатляющая",
                "напряженная",
                "грустная",
                "тоскливая",
                "увлекательная",
                "динамичная"
            ]
        }
    ],
    "heroes": [
        {
            "features": [
                "лидер",
                "богатый",
                "флегматик",
                "ответственный",
                "мужчина",
                "находчивый",
                "агрессивный",
                "уважительный",
                "прилежный",
                "скромный",
                "умный",
                "бережливый",
                "молодой",
                "выносливый",
                "популярный",
                "оптимист",
                "творческий",
                "профессионал",
                "счастливый"
            ],
            "name": "Валерий Харламов",
            "specials": [
                "хоккеист"
            ]
        },
        {
            "features": [
                "добрый",
                "обычный",
                "общительный",
                "грубый",
                "находчивый",
                "уважительный",
                "женщина",
                "прилежный",
                "скромный",
                "умный",
                "молодой",
                "добросовестный",
                "оптимист",
                "творческий",
                "счастливый"
            ],
            "name": "Ирина Смирнова",
            "specials": [
                "студент"
            ]
        },
        {
            "features": [
                "ответственный",
                "профессионал",
                "лидер",
                "общительный",
                "агрессивный",
                "высокомерный",
                "добросовестный",
                "выносливый",
                "старый",
                "счастливый",
                "находчивый",
                "бережливый",
                "холерик",
                "оптимист",
                "умный",
                "популярный",
                "мужчина",
                "нервный",
                "гениальный",
                "пофигистичный",
                "прилежный",
                "неуважительный"
            ],
            "name": "Анатолий Тарасов",
            "specials": [
                "тренер"
            ]
        },
        {
            "features": [
                "добрый",
                "обычный",
                "общительный",
                "богатый",
                "мужчина",
                "находчивый",
                "неряшливый",
                "уважительный",
                "прилежный",
                "скромный",
                "умный",
                "пессимист",
                "настойчивый",
                "уравновешенный",
                "популярный",
                "старый",
                "творческий",
                "слабый"
            ],
            "name": "Эдуард Балашов"
        },
        {
            "features": [
                "добрый",
                "мужчина",
                "общительный",
                "агрессивный",
                "выносливый",
                "уважительный",
                "глупый",
                "пофигистичный",
                "прилежный",
                "скромный",
                "молодой",
                "добросовестный",
                "популярный",
                "оптимист",
                "творческий",
                "профессионал",
                "счастливый"
            ],
            "name": "Александр Гуськов",
            "specials": [
                "хоккеист"
            ]
        },
        {
            "features": [
                "добрый",
                "лидер",
                "мужчина",
                "ответственный",
                "находчивый",
                "чуткий",
                "уважительный",
                "прилежный",
                "скромный",
                "рутинный",
                "выносливый",
                "популярный",
                "старый",
                "умный",
                "профессионал",
                "счастливый"
            ],
            "name": "Борис Кулагин",
            "specials": [
                "тренер"
            ]
        },
        {
            "features": [
                "добрый",
                "лидер",
                "общительный",
                "богатый",
                "старый",
                "находчивый",
                "мужчина",
                "выносливый",
                "уважительный",
                "прилежный",
                "скромный",
                "умный",
                "добросовестный",
                "популярный",
                "оптимист",
                "творческий",
                "профессионал",
                "счастливый"
            ],
            "name": "Всеволод Бобров",
            "specials": [
                "тренер"
            ]
        },
        {
            "features": [
                "добрый",
                "богатый",
                "общительный",
                "ответственный",
                "мужчина",
                "находчивый",
                "выносливый",
                "уважительный",
                "прилежный",
                "скромный",
                "умный",
                "бережливый",
                "молодой",
                "добросовестный",
                "популярный",
                "оптимист",
                "творческий",
                "профессионал",
                "счастливый"
            ],
            "name": "Борис Михайлов",
            "specials": []
        },
        {
            "features": [
                "добрый",
                "богатый",
                "общительный",
                "ответственный",
                "мужчина",
                "уважительный",
                "прилежный",
                "скромный",
                "бережливый",
                "молодой",
                "выносливый",
                "популярный",
                "творческий",
                "профессионал",
                "счастливый"
            ],
            "name": "Владимир Петров",
            "specials": []
        }
    ],
    "imdb_id": "",
    "kinopoisk_id": "601564",
    "name": "Легенда №17",
    "places": [
        {
            "features": [
                "СССР",
                "Земля",
                "Канада"
            ]
        }
    ],
    "problems": [],
    "stories": [
        {
            "features": [
                "драма",
                "успех",
                "любовь",
                "спорт"
            ]
        }
    ],
    "times": [
        {
            "features": []
        }
    ]
}