{
    "__updated": "6.10.2017",
    "atmospheres": [
        {
            "features": [
                "серьезная",
                "резкая",
                "линейная",
                "напряженная",
                "мрачная",
                "противная",
                "жестокая"
            ]
        }
    ],
    "heroes": [
        {
            "features": [
                "добрый",
                "лидер",
                "обычный",
                "грубый",
                "целеустремленный",
                "аристократ",
                "инициативный",
                "сангвиник",
                "женщина",
                "скромный",
                "молодой",
                "оптимист",
                "умный"
            ],
            "name": "Элис",
            "specials": [
                "боец"
            ]
        }
    ],
    "imdb_id": 120804,
    "kinopoisk_id": 801,
    "name": "Обитель зла",
    "places": [
        {
            "features": [
                "лаборатория",
                "подземелье",
                "США"
            ]
        }
    ],
    "problems": [
        {
            "features": [
                "зло",
                "жадность",
                "жестокость",
                "равнодушие"
            ]
        }
    ],
    "stories": [
        {
            "features": [
                "заражение",
                "зло",
                "драки",
                "апокалипсис",
                "монстры",
                "мясорубка",
                "резня"
            ]
        }
    ],
    "times": [
        {
            "features": [
                "осень"
            ]
        }
    ]
}