{
    "__updated": "6.10.2017",
    "atmospheres": [
        {
            "features": [
                "пошлая",
                "уютная",
                "яркая",
                "монотонная",
                "спокойная",
                "веселая",
                "развязная"
            ]
        }
    ],
    "heroes": [
        {
            "features": [
                "мужчина",
                "двуликий",
                "богатый",
                "целеустремленный",
                "аристократ",
                "экстраверт",
                "неряшливый",
                "высокомерный",
                "молодой",
                "холерик",
                "харизматичный",
                "оптимист",
                "старый",
                "раскованный"
            ],
            "name": "Мэл Гибсон(переименуйте)",
            "specials": [
                "казанова"
            ]
        }
    ],
    "imdb_id": 207201,
    "kinopoisk_id": 880,
    "name": "Чего хотят женщины",
    "places": [
        {
            "features": [
                "США"
            ]
        }
    ],
    "problems": [
        {
            "features": [
                "лицемерие",
                "отношения",
                "наказание"
            ]
        }
    ],
    "stories": [
        {
            "features": [
                "отношения",
                "суперспособность"
            ]
        }
    ],
    "times": [
        {
            "features": []
        }
    ]
}